Data Science per psicologi - 20 Approssimazione della distribuzione a posteriori
…
In queste circostanze, l’aggiornamento bayesiano produce una distribuzione a posteriori Beta di parametri 25 (\(y + \alpha\) = 23 + 2) e 17 (\(n - y + \beta\) = 30 - 23 + 10):

\[
\theta \mid (y = 23) \sim \mbox{Beta}(25, 17).\notag
\]

Per approssimare una tale distribuzione a posteriori, fissiamo una griglia di \(n = 11\) valori equispaziati: \(\theta \in \{0, 0.1, 0.2, 0.3, 0.4, 0.5, 0.6, 0.7, 0.8, 0.9, 1\}\).

grid_data <- tibble(
  theta_grid = seq(from = 0, to = 1, length.out = 11)
)
grid_data
#> # A tibble: 11 × 1
#>   theta_grid
#>        <dbl>
#> 1        0  
#> 2        0.1
#> 3        0.2
#> 4        0.3
#> 5        0.4
#> 6        0.5
#> 7        0.6
#> 8        0.7
#> # … with 3 more rows
…
