Data Science per psicologi - 31 Predictive checks
…
Si nota un qualche miglioramento, anche se però si può dire che il modello è ancora migliorabile. Esaminiamo le stime a posteriori dei parametri.

fit2$summary()
#> # A tibble: 439 × 10
#>   variable     mean   median     sd    mad       q5      q95  rhat ess_bulk
#>   <chr>       <dbl>    <dbl>  <dbl>  <dbl>    <dbl>    <dbl> <dbl>    <dbl>
#> 1 lp__     -165.    -164.    1.44   1.25   -167.    -163.     1.00    5293.
#> 2 alpha       0.881    0.895 0.122  0.0967    0.692    1.04   1.00    3876.
#> 3 beta        0.408    0.408 0.0442 0.0450    0.335    0.480  1.00    7384.
#> 4 sigma       1.26     1.27  0.0875 0.0809    1.12     1.40   1.00    4142.
#> 5 tau        -1.90    -1.91  0.416  0.386    -2.56    -1.24   1.00    3852.
#> 6 y_rep[1]    0.582    0.649 0.897  0.880    -1.00     1.93   1.00   15664.
#> 7 y_rep[2]   -0.294   -0.218 0.907  0.881    -1.90     1.07   1.00   15206.
#> 8 y_rep[3]    0.415    0.480 0.900  0.886    -1.18     1.77   1.00   14265.
#> # … with 431 more rows, and 1 more variable: ess_tail <dbl>
…
